{
  "project_info": {
    "project_number": "731643357137",
    "firebase_url": "https://cashdaynew.firebaseio.com",
    "project_id": "cashdaynew",
    "storage_bucket": "cashdaynew.appspot.com"
  },
  "client": [
    {
      "client_info": {
        "mobilesdk_app_id": "1:731643357137:android:02a8f8e6b832ee54",
        "android_client_info": {
          "package_name": "com.cashday"
        }
      },
      "oauth_client": [
        {
          "client_id": "731643357137-8ed4j2ou3llhq426vq0j33eqakj68bpi.apps.googleusercontent.com",
          "client_type": 1,
          "android_info": {
            "package_name": "com.cashday",
            "certificate_hash": "1c68e524948866709d4fc51ddea6f092eeefabe2"
          }
        },
        {
          "client_id": "731643357137-jhk0bkcdphj6adiqgp0q7v1ff22ep7dd.apps.googleusercontent.com",
          "client_type": 3
        }
      ],
      "api_key": [
        {
          "current_key": "AIzaSyDxRsW4_JMgli-7pmbRgtfHvQ6cZKDkxcA"
        }
      ],
      "services": {
        "analytics_service": {
          "status": 1
        },
        "appinvite_service": {
          "status": 2,
          "other_platform_oauth_client": [
            {
              "client_id": "731643357137-jhk0bkcdphj6adiqgp0q7v1ff22ep7dd.apps.googleusercontent.com",
              "client_type": 3
            }
          ]
        },
        "ads_service": {
          "status": 2
        }
      }
    }
  ],
  "configuration_version": "1"
}